<?xml version="1.0" encoding="utf-8"?>
<!-- Generator: Adobe Illustrator 23.0.2, SVG Export Plug-In . SVG Version: 6.00 Build 0)  -->
<svg version="1.1" id="Layer_1" xmlns="http://www.w3.org/2000/svg" xmlns:xlink="http://www.w3.org/1999/xlink" x="0px" y="0px"
	 viewBox="0 0 32.7 33.2" style="enable-background:new 0 0 32.7 33.2;" xml:space="preserve">
<style type="text/css">
	.st0{fill:#050404;}
</style>
<path class="st0" d="M32.7,29l-8-8c1.4-2.1,2.3-4.7,2.3-7.5C27,6.1,20.9,0,13.5,0S0,6.1,0,13.5C0,20.9,6.1,27,13.5,27
	c2.5,0,4.8-0.7,6.9-1.9l8.1,8.1L32.7,29z M13.5,20C9.9,20,7,17.1,7,13.5S9.9,7,13.5,7S20,9.9,20,13.5S17.1,20,13.5,20z"/>
</svg>
