<?xml version="1.0" encoding="utf-8"?>
<!-- Generator: Adobe Illustrator 23.0.2, SVG Export Plug-In . SVG Version: 6.00 Build 0)  -->
<svg version="1.1" id="Layer_1" xmlns="http://www.w3.org/2000/svg" xmlns:xlink="http://www.w3.org/1999/xlink" x="0px" y="0px"
	 viewBox="0 0 62.7 43.1" style="enable-background:new 0 0 62.7 43.1;" xml:space="preserve">
<style type="text/css">
	.st0{fill:#3325E8;}
</style>
<g>
	<g>
		<path class="st0" d="M60.1,4.2c-1.7-3-3.5-3.6-7.3-3.8C49,0.1,39.6,0,31.4,0C23.2,0,13.7,0.1,10,0.4C6.2,0.6,4.4,1.1,2.7,4.2
			C0.9,7.2,0,12.4,0,21.6c0,0,0,0,0,0c0,0,0,0,0,0v0C0,30.7,0.9,36,2.7,39c1.7,3,3.6,3.6,7.3,3.8c3.8,0.2,13.2,0.3,21.4,0.3
			c8.2,0,17.6-0.1,21.4-0.3c3.8-0.3,5.6-0.8,7.3-3.8c1.8-3,2.7-8.2,2.7-17.4c0,0,0,0,0,0c0,0,0,0,0,0C62.7,12.4,61.8,7.2,60.1,4.2z
			 M23.5,33.3V9.8l19.6,11.8L23.5,33.3z"/>
	</g>
</g>
</svg>
